## Interface: 90005
## Title: RPS Emotes
## Author: TestUnit
## Version: 2.1
## URL: https://rp-wow.ru/
## DefaultState: Enabled
## SavedVariables: RPSEmotesFrameworkIconData, RPSEmoteFrameworkFavourites

RPSEmotes.xml